{
    "name": "TESTQUESTIONSET",
    "id": "1477432752-C7A2U0I0O9U2W5C2T6",
    "cost": 0,
    "gameProgressionRank": 1,
    "category": 0,
    "questions": [
        {
            "questionText": "What is the capital of Australia?",
            "uid": "1476131148-L3K5S1T4C3I9G3M5S4",
            "questionCategory": 3,
            "questionType": 1,
            "subCategories": [
                1
            ],
            "correctLabelAnswer": "Canberra",
            "correctButtonColorAnswer": 0,
            "correctLabelColorAnswer": 0,
            "answerCategories": [
                5
            ],
            "buttonLabelOptions": [
                "Canberra",
                "Port-of-Spain",
                "Ottawa",
                "Washington",
                "Tokyo",
                "Sydney",
                "London",
                "Rio de Janeiro"
            ]
        },
        {
            "questionText": "How many inches in a foot?",
            "uid": "1476190709-L0F5W6X4O7H7W9I2K0",
            "questionCategory": 1,
            "questionType": 1,
            "subCategories": [
                1
            ],
            "correctLabelAnswer": "12",
            "correctButtonColorAnswer": 1,
            "correctLabelColorAnswer": 1,
            "answerCategories": [
                6
            ],
            "buttonLabelOptions": [
                "12",
                "1",
                "24",
                "3",
                "36"
            ]
        },
        {
            "questionText": "Which is not a prime color?",
            "uid": "1476144840-I7U7Q1V8E3S2R7K3E2",
            "questionCategory": 1,
            "questionType": 1,
            "subCategories": [
                1
            ],
            "correctLabelAnswer": "Pink",
            "correctButtonColorAnswer": 1,
            "correctLabelColorAnswer": 1,
            "answerCategories": [
                4
            ],
            "buttonLabelOptions": [
                "Red",
                "Yellow",
                "Green",
                "Blue",
                "Pink"
            ]
        },
        {
            "questionText": "What word could be used to describe an elephant?",
            "uid": "1476071538-F0K3X6L5S8U8Z7V1U4",
            "questionCategory": 1,
            "questionType": 1,
            "subCategories": [
                1
            ],
            "correctLabelAnswer": "Large",
            "correctButtonColorAnswer": 1,
            "correctLabelColorAnswer": 1,
            "answerCategories": [
                1
            ],
            "buttonLabelOptions": [
                "Large"
            ]
        },
        {
            "questionText": "Which is the largest ocean?",
            "uid": "1475981736-Z2W4V5S6C2D4N3M5D3",
            "questionCategory": 1,
            "questionType": 1,
            "subCategories": [
                1
            ],
            "correctLabelAnswer": "Pacific",
            "correctButtonColorAnswer": 1,
            "correctLabelColorAnswer": 1,
            "answerCategories": [
                2
            ],
            "buttonLabelOptions": [
                "Pacific",
                "Indian",
                "Atlantic",
                "Caribbean",
                "Mediterranean"
            ]
        },
        {
            "questionText": "Which is the closest planet to the Sun?",
            "uid": "1476144070-X9F3G2V1T9Y4K1R8P4",
            "questionCategory": 1,
            "questionType": 1,
            "subCategories": [
                1
            ],
            "correctLabelAnswer": "Mercury",
            "correctButtonColorAnswer": 1,
            "correctLabelColorAnswer": 1,
            "answerCategories": [
                5
            ],
            "buttonLabelOptions": [
                "Mercury",
                "Jupiter",
                "Pluto (#Never4Get)",
                "Neptune",
                "Earth",
                "Mars",
                "Venus"
            ]
        },
        {
            "questionText": "What type of fish was Nemo?",
            "uid": "1476036202-D6F0H6P6B2D4D3X1S5",
            "questionCategory": 5,
            "questionType": 1,
            "subCategories": [
                1
            ],
            "correctLabelAnswer": "Clown",
            "correctButtonColorAnswer": 1,
            "correctLabelColorAnswer": 1,
            "answerCategories": [
                2
            ],
            "buttonLabelOptions": [
                "Clown",
                "Angel",
                "Forgetful",
                "Jelly",
                "Gold"
            ]
        },
        {
            "questionText": "What is another word for Round?",
            "uid": "1476069324-V0R0S1L2W8Z0X3I4D8",
            "questionCategory": 1,
            "questionType": 1,
            "subCategories": [
                1
            ],
            "correctLabelAnswer": "Spherical",
            "correctButtonColorAnswer": 1,
            "correctLabelColorAnswer": 1,
            "answerCategories": [
                1
            ],
            "buttonLabelOptions": [
                "Spherical"
            ]
        },
        {
            "questionText": "What do you hammer?",
            "uid": "1476015044-C5P9M8O7F0K6O5H5K6",
            "questionCategory": 1,
            "questionType": 1,
            "subCategories": [
                1
            ],
            "correctLabelAnswer": "Nails",
            "correctButtonColorAnswer": 1,
            "correctLabelColorAnswer": 1,
            "answerCategories": [
                2
            ],
            "buttonLabelOptions": [
                "Nails",
                "Heads",
                "Cupboards",
                "Hinges",
                "Doors",
                "Animals"
            ]
        },
        {
            "questionText": "What are the colors of the suits in a deck of cards?",
            "uid": "1476097120-A4D6I8I7E0F1W3A6N7",
            "questionCategory": 1,
            "questionType": 1,
            "subCategories": [
                1
            ],
            "correctLabelAnswer": "Red and Black",
            "correctButtonColorAnswer": 1,
            "correctLabelColorAnswer": 1,
            "answerCategories": [
                2
            ],
            "buttonLabelOptions": [
                "Red and Black",
                "White and Red",
                "Black and White",
                "Black and Blue",
                "Red and Blue"
            ]
        },
        {
            "questionText": "What do you use to dig?",
            "uid": "1475947956-E7W5K5C0G0P3X9T7O5",
            "questionCategory": 1,
            "questionType": 1,
            "subCategories": [
                1
            ],
            "correctLabelAnswer": "A Shovel",
            "correctButtonColorAnswer": 1,
            "correctLabelColorAnswer": 1,
            "answerCategories": [
                2
            ],
            "buttonLabelOptions": [
                "A Shovel",
                "A Hoe",
                "A Hammer",
                "A Spoon",
                "A Broom"
            ]
        },
        {
            "questionText": "What is the opposite of soft?",
            "uid": "1476192430-K9O0R3X0P6S1J1S6U9",
            "questionCategory": 1,
            "questionType": 1,
            "subCategories": [
                1
            ],
            "correctLabelAnswer": "Hard",
            "correctButtonColorAnswer": 1,
            "correctLabelColorAnswer": 1,
            "answerCategories": [
                1
            ],
            "buttonLabelOptions": [
                "Hard"
            ]
        },
        {
            "questionText": "Press the Blue Button",
            "uid": "1476075445-G8T7T2H2R6U8Q8A1H3",
            "questionCategory": 1,
            "questionType": 2,
            "subCategories": [
                1
            ],
            "correctLabelAnswer": "",
            "correctButtonColorAnswer": 2,
            "correctLabelColorAnswer": 1,
            "answerCategories": [
                4
            ],
            "buttonLabelOptions": []
        },
        {
            "questionText": "Press the Red Button",
            "uid": "1476193422-E5D5J6A1P8G6N1B0E7",
            "questionCategory": 1,
            "questionType": 2,
            "subCategories": [
                1
            ],
            "correctLabelAnswer": "",
            "correctButtonColorAnswer": 1,
            "correctLabelColorAnswer": 1,
            "answerCategories": [
                4
            ],
            "buttonLabelOptions": []
        },
        {
            "questionText": "Press the Yellow Button",
            "uid": "1476155203-T5B2Z2D7Q5J9D0K9K1",
            "questionCategory": 1,
            "questionType": 2,
            "subCategories": [
                1
            ],
            "correctLabelAnswer": "",
            "correctButtonColorAnswer": 4,
            "correctLabelColorAnswer": 1,
            "answerCategories": [
                4
            ],
            "buttonLabelOptions": []
        },
        {
            "questionText": "Press the Pink Button",
            "uid": "1476053440-U3S6N3H6L6N3F7O1G5",
            "questionCategory": 1,
            "questionType": 2,
            "subCategories": [
                1
            ],
            "correctLabelAnswer": "",
            "correctButtonColorAnswer": 5,
            "correctLabelColorAnswer": 1,
            "answerCategories": [
                4
            ],
            "buttonLabelOptions": []
        },
        {
            "questionText": "Press the Green Button",
            "uid": "1476152160-P7L5P3N9J6I5Z0I9E5",
            "questionCategory": 1,
            "questionType": 2,
            "subCategories": [
                1
            ],
            "correctLabelAnswer": "",
            "correctButtonColorAnswer": 3,
            "correctLabelColorAnswer": 1,
            "answerCategories": [
                4
            ],
            "buttonLabelOptions": []
        },
        {
            "questionText": "Press the White Button",
            "uid": "1476169021-P9Y9Z3O9O7D1U0X3C4",
            "questionCategory": 1,
            "questionType": 2,
            "subCategories": [
                1
            ],
            "correctLabelAnswer": "",
            "correctButtonColorAnswer": 6,
            "correctLabelColorAnswer": 1,
            "answerCategories": [
                4
            ],
            "buttonLabelOptions": []
        },
        {
            "questionText": "Press the Black Button",
            "uid": "1476009486-I4N1U4P7U4W2H0S0V1",
            "questionCategory": 1,
            "questionType": 2,
            "subCategories": [
                1
            ],
            "correctLabelAnswer": "",
            "correctButtonColorAnswer": 7,
            "correctLabelColorAnswer": 1,
            "answerCategories": [
                4
            ],
            "buttonLabelOptions": []
        },
        {
            "questionText": "Press the Gray Button",
            "uid": "1476024292-P7H9S1W4M6H5F1Q1Y8",
            "questionCategory": 1,
            "questionType": 2,
            "subCategories": [
                1
            ],
            "correctLabelAnswer": "",
            "correctButtonColorAnswer": 8,
            "correctLabelColorAnswer": 1,
            "answerCategories": [
                4
            ],
            "buttonLabelOptions": []
        },
        {
            "questionText": "What's the name of Luke's robot companions?",
            "uid": "1476218222-R0Y5B2A7W1O3S3B8D6",
            "questionCategory": 5,
            "questionType": 1,
            "subCategories": [
                1
            ],
            "correctLabelAnswer": "C3-PO & R2-D2",
            "correctButtonColorAnswer": 7,
            "correctLabelColorAnswer": 1,
            "answerCategories": [
                5
            ],
            "buttonLabelOptions": [
                "C3-PO & R2-D2",
                "BB-8 & The Millenium Falcon",
                "Greedo & Boba Fett",
                "Han & Leia",
                "Chewie & Yoda",
                "Sebulba & The Ewoks"
            ]
        },
        {
            "questionText": "What does LOL stand for?",
            "uid": "1476155790-O7J7M2T0Y3Z1D6Q0Y5",
            "questionCategory": 1,
            "questionType": 1,
            "subCategories": [
                1
            ],
            "correctLabelAnswer": "Laugh Out Loud",
            "correctButtonColorAnswer": 7,
            "correctLabelColorAnswer": 1,
            "answerCategories": [
                2
            ],
            "buttonLabelOptions": [
                "Lots of Love",
                "Labor of Love",
                "Late or Locked (out)",
                "Loving Our Luck",
                "Laugh Out Loud"
            ]
        },
        {
            "questionText": "What is Caviar?",
            "uid": "1476209268-L7N9W5M6L7Y4S9F3D6",
            "questionCategory": 1,
            "questionType": 1,
            "subCategories": [
                1
            ],
            "correctLabelAnswer": "Fish Eggs",
            "correctButtonColorAnswer": 7,
            "correctLabelColorAnswer": 1,
            "answerCategories": [
                2
            ],
            "buttonLabelOptions": [
                "Fish Eggs",
                "A Type of Candy",
                "Salt Balls",
                "Colored plastic",
                "Fish Eyes"
            ]
        },
        {
            "questionText": "What is Apple's mobile operating system called?",
            "uid": "1476132323-M5U6H4G2N3K7Z7K2W5",
            "questionCategory": 1,
            "questionType": 1,
            "subCategories": [
                1
            ],
            "correctLabelAnswer": "iOS",
            "correctButtonColorAnswer": 7,
            "correctLabelColorAnswer": 1,
            "answerCategories": [
                2
            ],
            "buttonLabelOptions": [
                "iOS",
                "Android",
                "OSX",
                "Windows Mobile",
                "ChromeOS"
            ]
        },
        {
            "questionText": "\"It's not rocket ______\"",
            "uid": "1476117280-I5B4I3J6X3J8F5S8B7",
            "questionCategory": 1,
            "questionType": 1,
            "subCategories": [
                1
            ],
            "correctLabelAnswer": "Science",
            "correctButtonColorAnswer": 7,
            "correctLabelColorAnswer": 1,
            "answerCategories": [
                1
            ],
            "buttonLabelOptions": [
                "Surgery",
                "Science",
                "Fuel",
                "Fire",
                "Water",
                "Launching"
            ]
        },
        {
            "questionText": "What do some people wear instead of glasses?",
            "uid": "1475999435-S1N0Q3C5D4L2F6M5U0",
            "questionCategory": 1,
            "questionType": 1,
            "subCategories": [
                1
            ],
            "correctLabelAnswer": "Contact Lenses",
            "correctButtonColorAnswer": 7,
            "correctLabelColorAnswer": 1,
            "answerCategories": [
                2
            ],
            "buttonLabelOptions": [
                "Contact Lenses",
                "Earrings",
                "Two monocles",
                "A hat",
                "A wrist watch"
            ]
        },
        {
            "questionText": "What's the opposite of hot?",
            "uid": "1476101830-X6U0K2B0O2W1S1I0R0",
            "questionCategory": 1,
            "questionType": 1,
            "subCategories": [
                1
            ],
            "correctLabelAnswer": "Cold",
            "correctButtonColorAnswer": 7,
            "correctLabelColorAnswer": 1,
            "answerCategories": [
                1
            ],
            "buttonLabelOptions": [
                "Cold"
            ]
        },
        {
            "questionText": "What's another word for worried?",
            "uid": "1476066487-E6B0D5R9L2S5Y5H4L1",
            "questionCategory": 1,
            "questionType": 1,
            "subCategories": [
                1
            ],
            "correctLabelAnswer": "Concerned",
            "correctButtonColorAnswer": 7,
            "correctLabelColorAnswer": 1,
            "answerCategories": [
                1
            ],
            "buttonLabelOptions": [
                "Concerned"
            ]
        },
        {
            "questionText": "... Suddenly, a ______ of buffalo appeared!",
            "uid": "1476648499-P5R7H3W4L7N1G2F1N5",
            "questionCategory": 1,
            "questionType": 1,
            "subCategories": [
                1
            ],
            "correctLabelAnswer": "Herd",
            "correctButtonColorAnswer": 7,
            "correctLabelColorAnswer": 1,
            "answerCategories": [
                2
            ],
            "buttonLabelOptions": [
                "Pack",
                "Group",
                "Herd",
                "Murder",
                "Flock",
                "Swarm",
                "Swarm"
            ]
        },
        {
            "questionText": "\"Excuse me while I kiss the ___\"",
            "uid": "1476608342-T3Q2K6B7D6Q7X5T4Y3",
            "questionCategory": 1,
            "questionType": 1,
            "subCategories": [
                1
            ],
            "correctLabelAnswer": "Sky",
            "correctButtonColorAnswer": 7,
            "correctLabelColorAnswer": 1,
            "answerCategories": [
                2
            ],
            "buttonLabelOptions": [
                "Sky"
            ]
        }
    ]
}